team.Rmd
…
8. Is summer or winter more dangerous? Does this depend on states? Explore and explain.

# Filtering by Season
summer <- acc %>%
  filter(MONTH == 6 | MONTH == 7 | MONTH == 8)
winter <- acc %>%
  filter(MONTH == 1 | MONTH == 2 | MONTH == 12)

# Grouping by State  
summer %>%
  group_by(STATE) %>%
  summarise("Summer Total" = n(), .groups = 'drop')%>%
  head("Summer Total")

## # A tibble: 51 x 2
##    STATE `Summer Total`
##    <int>          <int>
##  1     1            221
##  2     2             23
##  3     4            226
##  4     5            127
##  5     6            871
##  6     8            191
##  7     9             62
##  8    10             28
##  9    11             10
## 10    12            675
## #  with 41 more rows

winter %>%
  group_by(STATE) %>%
  summarise("Winter Total" = n(), .groups = 'drop')%>%
  head("Winter Total")

## # A tibble: 51 x 2
##    STATE `Winter Total`
##    <int>          <int>
##  1     1            199
##  2     2             21
##  3     4            223
##  4     5            104
##  5     6            785
##  6     8            117
##  7     9             60
##  8    10             25
##  9    11              7
## 10    12            768
## #  with 41 more rows
…
